<svg width="105" height="105" viewBox="0 0 105 105" fill="none" xmlns="http://www.w3.org/2000/svg">
<rect width="105" height="105" rx="12" fill="#595CFF"/>
<path d="M76 49.011H56.0011V29H50.011V49.011H30V55.001H50.011V75H56.0011V55.001H76V49.011Z" fill="white"/>
</svg>
