<svg width="104" height="105" viewBox="0 0 104 105" fill="none" xmlns="http://www.w3.org/2000/svg">
<rect width="104" height="105" rx="12" fill="#595CFF"/>
<path d="M63.648 89H28.3517C25.9482 89 24 87.0516 24 84.6482L24 49.3517C24 46.9483 25.9482 45 28.3517 45L63.648 45C66.0514 45 68 46.9483 68 49.3517V84.6482C68 87.0516 66.0514 89 63.648 89Z" fill="white"/>
<path d="M50.131 24.6459C51.6177 23.1558 53.2827 21.6657 54.814 20.1755C55.0806 19.9806 55.3022 19.7305 55.4641 19.4422C55.6259 19.1539 55.7241 18.8341 55.7519 18.5045C55.7797 18.1749 55.7368 17.8431 55.6256 17.5317C55.5144 17.2202 55.3377 16.9363 55.1076 16.6992C54.8775 16.4621 54.5992 16.2773 54.2917 16.1573C53.9841 16.0373 53.6546 15.9849 53.3251 16.0037C52.9956 16.0225 52.6737 16.112 52.3817 16.2661C52.0897 16.4203 51.8344 16.6355 51.6326 16.8972C48.6591 19.8775 45.7598 22.7237 42.8756 25.6741C42.5966 25.8937 42.3723 26.1752 42.2204 26.4965C42.0686 26.8178 41.9933 27.1702 42.0005 27.5256C42.0077 27.8811 42.0974 28.23 42.2622 28.5448C42.4269 28.8597 42.6624 29.1319 42.95 29.3399C45.8045 32.2407 48.6839 35.1266 51.5879 37.9976C51.7883 38.2669 52.0441 38.4897 52.3382 38.651C52.6322 38.8123 52.9574 38.9082 53.2917 38.9322C53.626 38.9562 53.9617 38.9078 54.2757 38.7902C54.5897 38.6727 54.8745 38.4887 55.1113 38.2509C55.3388 38.0031 55.5114 37.7097 55.6176 37.3902C55.7238 37.0707 55.7613 36.7324 55.7276 36.3973C55.6939 36.0623 55.5897 35.7381 55.422 35.4463C55.2542 35.1545 55.0267 34.9017 54.7545 34.7044C53.2677 33.2142 51.6769 31.724 49.878 29.9061C59.2443 29.161 66.6633 32.037 72.0898 39.3685C74.8164 43.0254 76.3154 47.4548 76.3714 52.0197C76.3714 54.0314 77.2041 55 78.7354 55C80.2667 55 81.0696 53.9122 80.9953 51.7813C80.7312 44.6658 77.7376 37.9268 72.6386 32.9688C67.5397 28.0108 60.7285 25.2163 53.6245 25.1675H50.3241L50.131 24.6459Z" fill="white"/>
</svg>
