<svg width="67" height="67" viewBox="0 0 67 67" fill="none" xmlns="http://www.w3.org/2000/svg">
<path d="M66.4541 33.585C66.4541 15.235 51.6224 0.359375 33.3266 0.359375C15.0307 0.359375 0.198975 15.235 0.198975 33.585C0.198975 51.935 15.0307 66.8106 33.3266 66.8106C51.6224 66.8106 66.4541 51.935 66.4541 33.585Z" fill="white"/>
<path d="M33.6195 55.6478H33.08C32.6414 55.6478 32.2072 55.5609 31.8022 55.3921C31.3972 55.2233 31.0295 54.9759 30.7201 54.6642C30.4107 54.3524 30.1657 53.9825 29.9993 53.5755C29.8329 53.1685 29.7482 52.7326 29.7503 52.2927V51.4888C29.7503 50.6031 30.1011 49.7536 30.7255 49.1273C31.35 48.5011 32.1969 48.1492 33.08 48.1492H33.6504C34.5335 48.1492 35.3804 48.5011 36.0048 49.1273C36.6293 49.7536 36.9801 50.6031 36.9801 51.4888V52.2927C36.9821 52.7352 36.8965 53.1737 36.7282 53.5827C36.5598 53.9917 36.3121 54.363 35.9994 54.6752C35.6868 54.9874 35.3154 55.2341 34.9068 55.4011C34.4982 55.568 34.0607 55.6519 33.6195 55.6478ZM33.3266 11.5531C33.7792 11.5526 34.2272 11.6442 34.6434 11.8224C35.0596 12.0006 35.4355 12.2617 35.7482 12.5898C36.0609 12.9179 36.304 13.3062 36.4628 13.7313C36.6215 14.1564 36.6926 14.6093 36.6718 15.0627L35.4694 40.2641C35.4417 40.8151 35.2037 41.3343 34.8049 41.7143C34.406 42.0942 33.8767 42.3057 33.3266 42.305C32.7781 42.3055 32.2506 42.0935 31.8542 41.7132C31.4578 41.3329 31.2232 40.8138 31.1993 40.2641L29.9969 15.0318C29.9782 14.5817 30.0505 14.1324 30.2094 13.711C30.3684 13.2897 30.6107 12.9049 30.9217 12.5799C31.2328 12.2549 31.6062 11.9964 32.0195 11.8199C32.4328 11.6435 32.8775 11.5527 33.3266 11.5531Z" fill="#595CFF"/>
</svg>
