<svg width="105" height="105" viewBox="0 0 105 105" fill="none" xmlns="http://www.w3.org/2000/svg">
<rect width="105" height="105" rx="12" fill="#595CFF"/>
<path d="M82.886 51.8662C80.1352 48.5381 77.8943 48.4044 75.5327 47.6827C75.5327 38.5939 70.6079 31.0155 59.3229 31.0155C56.2628 30.8759 53.234 31.6802 50.65 33.3188C48.0659 34.9574 46.0525 37.3504 44.8845 40.1711C44.8845 40.1711 37.9875 35.9208 33.3313 40.1711C31.9924 41.3596 30.9848 42.8727 30.4064 44.5636C29.8281 46.2545 29.6985 48.0657 30.0304 49.8212C30.0304 49.8212 19 51.3851 19 61.3292C19 71.2734 28.5408 73.9599 28.5408 73.9599H50.3325V59.3244C50.3325 59.1932 50.2802 59.0674 50.1871 58.9746C50.094 58.8819 49.9679 58.8298 49.8362 58.8298H44.4688C44.3712 58.829 44.2757 58.7995 44.1949 58.7451C44.114 58.6907 44.0513 58.6137 44.0141 58.5239C43.9768 58.4341 43.9671 58.3354 43.9859 58.24C44.0047 58.1446 44.0513 58.0569 44.1199 57.9878L53.298 48.1906C53.3909 48.0992 53.5163 48.0479 53.6469 48.0479C53.7775 48.0479 53.9028 48.0992 53.9958 48.1906L63.1608 57.961C63.2293 58.0302 63.2759 58.1179 63.2948 58.2133C63.3136 58.3086 63.3035 58.4074 63.2663 58.4972C63.229 58.5871 63.1663 58.664 63.0854 58.7184C63.0046 58.7728 62.9094 58.8022 62.8119 58.8031H57.4444C57.3128 58.8031 57.1864 58.8551 57.0932 58.9479C57.0001 59.0406 56.9478 59.1664 56.9478 59.2976V74H76.1096C87.5825 73.9599 85.6502 55.2077 82.886 51.8662Z" fill="white"/>
</svg>
