<svg width="322" height="27" viewBox="0 0 322 27" fill="none" xmlns="http://www.w3.org/2000/svg">
<g clip-path="url(#clip0_44_2645)">
<path fill-rule="evenodd" clip-rule="evenodd" d="M76.99 24.92H90.28V19.82H99.14V13.76H90.28V10.8H107.26V1.27002H76.99V24.92Z" fill="#404891"/>
<path fill-rule="evenodd" clip-rule="evenodd" d="M311.87 12.43V15.39H321.9V24.93H298.58V1.27002H311.87V6.38002V12.43Z" fill="#404891"/>
<path fill-rule="evenodd" clip-rule="evenodd" d="M58.74 11.68C58.74 12.76 58.31 13.68 57.26 13.68C56.21 13.68 55.78 12.78 55.78 11.68V1.27002H42.28V11.18C42.28 15.1662 43.8635 18.9892 46.6822 21.8078C49.5009 24.6265 53.3238 26.21 57.31 26.21C61.2962 26.21 65.1191 24.6265 67.9378 21.8078C70.7565 18.9892 72.34 15.1662 72.34 11.18V1.27002H58.74V11.68Z" fill="#404891"/>
<path fill-rule="evenodd" clip-rule="evenodd" d="M1.06 10.8H14.24L0 24.92H38.39V15.39H24.36L39.45 1.28002V1.27002H1.06V10.8Z" fill="#404891"/>
<path fill-rule="evenodd" clip-rule="evenodd" d="M151.23 24.92V1.27H135.32V5.66C135.121 5.37904 134.907 5.10867 134.68 4.85C131.608 1.82842 127.498 0.0936534 123.19 0C119.78 0.0942518 116.541 1.51524 114.162 3.96075C111.783 6.40626 110.452 9.68333 110.452 13.095C110.452 16.5067 111.783 19.7837 114.162 22.2293C116.541 24.6748 119.78 26.0957 123.19 26.19C127.55 26.1034 131.707 24.3331 134.79 21.25C134.994 21.0274 135.171 20.7825 135.32 20.52V24.93L151.23 24.92Z" fill="#404891"/>
<path fill-rule="evenodd" clip-rule="evenodd" d="M189.74 1.27002H169.15V24.93H185.07V18.09H189.74C191.97 18.09 194.11 17.204 195.687 15.6268C197.264 14.0496 198.15 11.9105 198.15 9.68002C198.15 7.44955 197.264 5.31043 195.687 3.73325C194.11 2.15607 191.97 1.27002 189.74 1.27002Z" fill="#404891"/>
<path d="M218.73 1.27002H202.81V24.91H218.73V1.27002Z" fill="#404891"/>
<path d="M260.93 25.01L249.01 13.09L260.83 1.27H247.03L242.11 6.19L237.12 1.19H223.31L235.21 13.09L223.37 24.93L237.19 24.91L242.11 19.99L247.12 25L260.93 25.01Z" fill="#404891"/>
<path fill-rule="evenodd" clip-rule="evenodd" d="M293.94 8.51002V1.27002H265.47V17.67V19.24V24.91H293.94V17.67H281.04V15.36H287.77V10.76H281.04V8.51002H293.94Z" fill="#404891"/>
</g>
<defs>
<clipPath id="clip0_44_2645">
<rect width="321.9" height="26.19" fill="white"/>
</clipPath>
</defs>
</svg>
